G75*
G70*
%OFA0B0*%
%FSLAX24Y24*%
%IPPOS*%
%LPD*%
%AMOC8*
5,1,8,0,0,1.08239X$1,22.5*
%
%ADD10C,0.0039*%
%ADD11C,0.0130*%
%ADD12OC8,0.0560*%
%ADD13C,0.0594*%
%ADD14C,0.0278*%
%ADD15C,0.0240*%
%ADD16C,0.0500*%
%ADD17C,0.0160*%
%ADD18C,0.0560*%
%ADD19C,0.2362*%
D10*
X001734Y001250D02*
X001734Y017785D01*
X016891Y017785D01*
X016891Y001250D01*
X001734Y001250D01*
D11*
X013358Y001918D02*
X013358Y002103D01*
X013420Y002165D01*
X013482Y002165D01*
X013544Y002103D01*
X013544Y001918D01*
X013729Y001918D02*
X013729Y002103D01*
X013667Y002165D01*
X013605Y002165D01*
X013544Y002103D01*
X013729Y001918D02*
X013358Y001918D01*
X013729Y002378D02*
X013729Y002625D01*
X013729Y002502D02*
X013358Y002502D01*
X013358Y002839D02*
X013729Y002839D01*
X013605Y002962D01*
X013729Y003085D01*
X013358Y003085D01*
D12*
X014423Y006017D03*
X014423Y007017D03*
X015423Y007017D03*
X015423Y006017D03*
X015423Y008017D03*
X015423Y009017D03*
X015423Y010017D03*
X015423Y011017D03*
X015423Y012017D03*
X015423Y013017D03*
X014423Y013017D03*
X014423Y012017D03*
X014423Y011017D03*
X014423Y010017D03*
X014423Y009017D03*
X014423Y008017D03*
D13*
X012265Y002925D02*
X012265Y002331D01*
X010887Y002331D02*
X010887Y002925D01*
X009509Y002925D02*
X009509Y002331D01*
X008131Y002331D02*
X008131Y002925D01*
X006753Y002925D02*
X006753Y002331D01*
X005375Y002331D02*
X005375Y002925D01*
X003997Y002925D02*
X003997Y002331D01*
X002619Y002331D02*
X002619Y002925D01*
X002913Y010403D02*
X003507Y010403D01*
X003507Y011781D02*
X002913Y011781D01*
X002913Y013159D02*
X003507Y013159D01*
X003507Y014537D02*
X002913Y014537D01*
X002619Y016110D02*
X002619Y016704D01*
X003997Y016704D02*
X003997Y016110D01*
X005375Y016110D02*
X005375Y016704D01*
X006753Y016704D02*
X006753Y016110D01*
X008131Y016110D02*
X008131Y016704D01*
X009509Y016704D02*
X009509Y016110D01*
X010887Y016110D02*
X010887Y016704D01*
X012265Y016704D02*
X012265Y016110D01*
D14*
X012593Y014434D03*
X012593Y014034D03*
X012493Y012034D03*
X011693Y011934D03*
X011693Y010534D03*
X012793Y010034D03*
X010293Y007834D03*
X009793Y008334D03*
X010593Y006834D03*
X008493Y004534D03*
X008493Y004234D03*
X011093Y004334D03*
X011093Y004034D03*
X013293Y006234D03*
X009693Y011234D03*
X009993Y014234D03*
X009993Y014734D03*
X007734Y014700D03*
X007534Y014450D03*
X005634Y014700D03*
X005384Y014400D03*
X005234Y012550D03*
X004784Y012050D03*
X004784Y011750D03*
X004784Y011450D03*
X006734Y010950D03*
X006793Y009634D03*
X006793Y009334D03*
X006793Y009034D03*
X006793Y008734D03*
X004993Y008834D03*
X004993Y008334D03*
X004993Y007834D03*
X004993Y007334D03*
X005693Y004534D03*
X005693Y004234D03*
X003493Y004334D03*
X003193Y004334D03*
D15*
X003113Y004351D02*
X016631Y004351D01*
X016631Y004112D02*
X010797Y004112D01*
X010888Y004075D02*
X010697Y004154D01*
X008297Y004154D01*
X008090Y004154D01*
X005497Y004154D01*
X005290Y004154D01*
X004890Y004154D01*
X003113Y004154D01*
X003113Y004619D01*
X003209Y004714D01*
X004797Y004714D01*
X004988Y004793D01*
X005134Y004939D01*
X005288Y005093D01*
X005434Y005239D01*
X005513Y005431D01*
X005513Y007437D01*
X005513Y007731D01*
X005513Y008231D01*
X005513Y008731D01*
X005513Y008937D01*
X005434Y009129D01*
X004872Y009691D01*
X004681Y009770D01*
X004474Y009770D01*
X002949Y009770D01*
X002832Y009886D01*
X003210Y009886D01*
X003610Y009886D01*
X003800Y009965D01*
X003945Y010111D01*
X004024Y010300D01*
X004024Y010403D01*
X003210Y010403D01*
X003210Y009886D01*
X003210Y010403D01*
X003210Y010403D01*
X003210Y010403D01*
X004024Y010403D01*
X004024Y010506D01*
X003945Y010696D01*
X003800Y010841D01*
X003610Y010920D01*
X003210Y010920D01*
X003210Y010404D01*
X003210Y010404D01*
X003210Y010920D01*
X002810Y010920D01*
X002704Y010876D01*
X002704Y011287D01*
X002806Y011244D01*
X003614Y011244D01*
X003811Y011326D01*
X003962Y011477D01*
X004044Y011674D01*
X004044Y011888D01*
X003962Y012085D01*
X003811Y012236D01*
X003614Y012318D01*
X002806Y012318D01*
X002704Y012276D01*
X002704Y012687D01*
X002810Y012642D01*
X003210Y012642D01*
X003610Y012642D01*
X003800Y012721D01*
X003945Y012866D01*
X004024Y013056D01*
X004024Y013159D01*
X003210Y013159D01*
X003210Y012642D01*
X003210Y013159D01*
X003210Y013159D01*
X003210Y013159D01*
X004024Y013159D01*
X004024Y013262D01*
X003945Y013452D01*
X003800Y013597D01*
X003610Y013676D01*
X003210Y013676D01*
X003210Y013160D01*
X003210Y013160D01*
X003210Y013676D01*
X002810Y013676D01*
X002704Y013632D01*
X002704Y014043D01*
X002806Y014000D01*
X003614Y014000D01*
X003811Y014082D01*
X003962Y014233D01*
X004044Y014430D01*
X004044Y014644D01*
X003973Y014814D01*
X003990Y014814D01*
X004197Y014814D01*
X006690Y014814D01*
X006897Y014814D01*
X009390Y014814D01*
X009597Y014814D01*
X012197Y014814D01*
X012388Y014893D01*
X012534Y015039D01*
X012706Y015211D01*
X012785Y015402D01*
X012785Y015609D01*
X012785Y015963D01*
X012802Y016004D01*
X012802Y016811D01*
X012720Y017008D01*
X012569Y017159D01*
X012372Y017241D01*
X012158Y017241D01*
X011961Y017159D01*
X011810Y017008D01*
X011728Y016811D01*
X011728Y016004D01*
X011745Y015963D01*
X011745Y015854D01*
X011362Y015854D01*
X011424Y016004D01*
X011424Y016811D01*
X011342Y017008D01*
X011191Y017159D01*
X010994Y017241D01*
X010780Y017241D01*
X010583Y017159D01*
X010432Y017008D01*
X010350Y016811D01*
X010350Y016004D01*
X010412Y015854D01*
X010029Y015854D01*
X010029Y015963D01*
X010046Y016004D01*
X010046Y016811D01*
X009964Y017008D01*
X009813Y017159D01*
X009616Y017241D01*
X009402Y017241D01*
X009205Y017159D01*
X009054Y017008D01*
X008972Y016811D01*
X008972Y016004D01*
X008989Y015963D01*
X008989Y015854D01*
X008606Y015854D01*
X008668Y016004D01*
X008668Y016811D01*
X008586Y017008D01*
X008435Y017159D01*
X008238Y017241D01*
X008024Y017241D01*
X007827Y017159D01*
X007676Y017008D01*
X007594Y016811D01*
X007594Y016004D01*
X007656Y015854D01*
X007273Y015854D01*
X007273Y015963D01*
X007290Y016004D01*
X007290Y016811D01*
X007208Y017008D01*
X007057Y017159D01*
X006860Y017241D01*
X006646Y017241D01*
X006449Y017159D01*
X006298Y017008D01*
X006216Y016811D01*
X006216Y016004D01*
X006233Y015963D01*
X006233Y015854D01*
X005850Y015854D01*
X005912Y016004D01*
X005912Y016811D01*
X005830Y017008D01*
X005679Y017159D01*
X005482Y017241D01*
X005268Y017241D01*
X005071Y017159D01*
X004920Y017008D01*
X004838Y016811D01*
X004838Y016004D01*
X004900Y015854D01*
X004517Y015854D01*
X004517Y015963D01*
X004534Y016004D01*
X004534Y016811D01*
X004452Y017008D01*
X004301Y017159D01*
X004104Y017241D01*
X003891Y017241D01*
X003693Y017159D01*
X003542Y017008D01*
X003460Y016811D01*
X003460Y016004D01*
X003477Y015963D01*
X003477Y015854D01*
X003094Y015854D01*
X003156Y016004D01*
X003156Y016811D01*
X003074Y017008D01*
X002923Y017159D01*
X002726Y017241D01*
X002513Y017241D01*
X002315Y017159D01*
X002164Y017008D01*
X002083Y016811D01*
X002083Y016004D01*
X002164Y015806D01*
X002209Y015761D01*
X001993Y015545D01*
X001993Y017526D01*
X014622Y017526D01*
X014376Y017280D01*
X014189Y016956D01*
X014092Y016594D01*
X014092Y016220D01*
X014189Y015859D01*
X014376Y015535D01*
X014640Y015270D01*
X014965Y015083D01*
X015326Y014986D01*
X015700Y014986D01*
X016062Y015083D01*
X016386Y015270D01*
X016631Y015516D01*
X016631Y003519D01*
X016386Y003765D01*
X016062Y003952D01*
X015700Y004049D01*
X015326Y004049D01*
X014965Y003952D01*
X014640Y003765D01*
X014376Y003500D01*
X014189Y003176D01*
X014092Y002815D01*
X014092Y002441D01*
X014189Y002079D01*
X014376Y001755D01*
X014622Y001509D01*
X001993Y001509D01*
X001993Y006975D01*
X001993Y006975D01*
X002171Y006667D01*
X002436Y006402D01*
X002760Y006215D01*
X003121Y006118D01*
X003495Y006118D01*
X003857Y006215D01*
X004181Y006402D01*
X004445Y006667D01*
X004473Y006715D01*
X004473Y005754D01*
X003097Y005754D01*
X002890Y005754D01*
X002699Y005675D01*
X002299Y005275D01*
X002153Y005129D01*
X002073Y004937D01*
X002073Y003837D01*
X002073Y003631D01*
X002099Y003568D01*
X002099Y003463D01*
X002099Y003072D01*
X002083Y003031D01*
X002083Y002224D01*
X002164Y002027D01*
X002315Y001876D01*
X002513Y001794D01*
X002726Y001794D01*
X002923Y001876D01*
X003074Y002027D01*
X003156Y002224D01*
X003156Y003031D01*
X003139Y003072D01*
X003139Y003114D01*
X003495Y003114D01*
X003460Y003031D01*
X003460Y002224D01*
X003542Y002027D01*
X003693Y001876D01*
X003891Y001794D01*
X004104Y001794D01*
X004301Y001876D01*
X004452Y002027D01*
X004534Y002224D01*
X004534Y003031D01*
X004500Y003114D01*
X004855Y003114D01*
X004855Y003072D01*
X004838Y003031D01*
X004838Y002224D01*
X004920Y002027D01*
X005071Y001876D01*
X005268Y001794D01*
X005482Y001794D01*
X005679Y001876D01*
X005830Y002027D01*
X005912Y002224D01*
X005912Y003031D01*
X005895Y003072D01*
X005895Y003114D01*
X006251Y003114D01*
X006216Y003031D01*
X006216Y002224D01*
X006298Y002027D01*
X006449Y001876D01*
X006646Y001794D01*
X006860Y001794D01*
X007057Y001876D01*
X007208Y002027D01*
X007290Y002224D01*
X007290Y003031D01*
X007256Y003114D01*
X007611Y003114D01*
X007611Y003072D01*
X007594Y003031D01*
X007594Y002224D01*
X007676Y002027D01*
X007827Y001876D01*
X008024Y001794D01*
X008238Y001794D01*
X008435Y001876D01*
X008586Y002027D01*
X008668Y002224D01*
X008668Y003031D01*
X008651Y003072D01*
X008651Y003114D01*
X009007Y003114D01*
X008972Y003031D01*
X008972Y002224D01*
X009054Y002027D01*
X009205Y001876D01*
X009402Y001794D01*
X009616Y001794D01*
X009813Y001876D01*
X009964Y002027D01*
X010046Y002224D01*
X010046Y003031D01*
X010012Y003114D01*
X010367Y003114D01*
X010367Y003072D01*
X010350Y003031D01*
X010350Y002224D01*
X010432Y002027D01*
X010583Y001876D01*
X010780Y001794D01*
X010994Y001794D01*
X011191Y001876D01*
X011342Y002027D01*
X011424Y002224D01*
X011424Y003031D01*
X011407Y003072D01*
X011407Y003237D01*
X011407Y003444D01*
X011328Y003635D01*
X011134Y003829D01*
X011034Y003929D01*
X010888Y004075D01*
X011089Y003874D02*
X014829Y003874D01*
X014511Y003635D02*
X011328Y003635D01*
X011407Y003397D02*
X012002Y003397D01*
X011961Y003380D02*
X011810Y003229D01*
X011728Y003031D01*
X011728Y002224D01*
X011810Y002027D01*
X011961Y001876D01*
X012158Y001794D01*
X012372Y001794D01*
X012569Y001876D01*
X012720Y002027D01*
X012802Y002224D01*
X012802Y003031D01*
X012720Y003229D01*
X012569Y003380D01*
X012372Y003461D01*
X012158Y003461D01*
X011961Y003380D01*
X011781Y003158D02*
X011407Y003158D01*
X011424Y002920D02*
X011728Y002920D01*
X011728Y002681D02*
X011424Y002681D01*
X011424Y002442D02*
X011728Y002442D01*
X011736Y002204D02*
X011416Y002204D01*
X011281Y001965D02*
X011871Y001965D01*
X012659Y001965D02*
X013053Y001965D01*
X013053Y001857D02*
X013100Y001745D01*
X013186Y001659D01*
X013298Y001613D01*
X013419Y001613D01*
X013483Y001613D01*
X013604Y001613D01*
X013668Y001613D01*
X013789Y001613D01*
X013901Y001659D01*
X013987Y001745D01*
X014034Y001857D01*
X014034Y002042D01*
X014034Y002164D01*
X014014Y002211D01*
X014002Y002241D01*
X014034Y002318D01*
X014034Y002686D01*
X014015Y002732D01*
X014034Y002778D01*
X014034Y002899D01*
X014014Y002947D01*
X014008Y002962D01*
X014015Y002980D01*
X014034Y003025D01*
X014034Y003146D01*
X013987Y003258D01*
X013901Y003344D01*
X013834Y003372D01*
X013789Y003390D01*
X013298Y003390D01*
X013186Y003344D01*
X013100Y003258D01*
X013053Y003146D01*
X013053Y003025D01*
X013079Y002962D01*
X013053Y002899D01*
X013053Y002778D01*
X013098Y002670D01*
X013053Y002562D01*
X013053Y002441D01*
X013100Y002329D01*
X013126Y002302D01*
X013100Y002276D01*
X013053Y002164D01*
X013053Y001857D01*
X013118Y001727D02*
X001993Y001727D01*
X001993Y001965D02*
X002226Y001965D01*
X002091Y002204D02*
X001993Y002204D01*
X001993Y002442D02*
X002083Y002442D01*
X002083Y002681D02*
X001993Y002681D01*
X001993Y002920D02*
X002083Y002920D01*
X002099Y003158D02*
X001993Y003158D01*
X001993Y003397D02*
X002099Y003397D01*
X002073Y003635D02*
X001993Y003635D01*
X001993Y003874D02*
X002073Y003874D01*
X002073Y004112D02*
X001993Y004112D01*
X001993Y004351D02*
X002073Y004351D01*
X002073Y004589D02*
X001993Y004589D01*
X001993Y004828D02*
X002073Y004828D01*
X002127Y005066D02*
X001993Y005066D01*
X001993Y005305D02*
X002329Y005305D01*
X002568Y005544D02*
X001993Y005544D01*
X001993Y005782D02*
X004473Y005782D01*
X004473Y006021D02*
X001993Y006021D01*
X001993Y006259D02*
X002684Y006259D01*
X002340Y006498D02*
X001993Y006498D01*
X001993Y006736D02*
X002131Y006736D01*
X003933Y006259D02*
X004473Y006259D01*
X004473Y006498D02*
X004276Y006498D01*
X005461Y005305D02*
X008629Y005305D01*
X008868Y005066D02*
X005261Y005066D01*
X005288Y005093D02*
X005288Y005093D01*
X005023Y004828D02*
X016631Y004828D01*
X016631Y005066D02*
X014119Y005066D01*
X014071Y005019D02*
X014209Y005156D01*
X014550Y005497D01*
X014638Y005497D01*
X014668Y005527D01*
X015177Y005527D01*
X015207Y005497D01*
X015638Y005497D01*
X015942Y005802D01*
X015942Y006233D01*
X015658Y006517D01*
X015942Y006802D01*
X015942Y007233D01*
X015658Y007517D01*
X015942Y007802D01*
X015942Y008233D01*
X015922Y008253D01*
X016197Y008529D01*
X016299Y008630D01*
X016353Y008762D01*
X016353Y011162D01*
X016353Y011306D01*
X016299Y011438D01*
X016099Y011638D01*
X015938Y011798D01*
X015942Y011802D01*
X015942Y012233D01*
X015644Y012532D01*
X015922Y012810D01*
X015922Y013017D01*
X015423Y013017D01*
X015423Y013018D01*
X015422Y013018D01*
X015422Y013517D01*
X015215Y013517D01*
X014923Y013225D01*
X014923Y013018D01*
X014922Y013018D02*
X014922Y013225D01*
X014630Y013517D01*
X014423Y013517D01*
X014423Y013018D01*
X014422Y013018D01*
X014422Y013517D01*
X014215Y013517D01*
X013923Y013225D01*
X013923Y013018D01*
X014422Y013018D01*
X014422Y013017D01*
X013923Y013017D01*
X013923Y012810D01*
X014201Y012532D01*
X013903Y012233D01*
X013903Y011802D01*
X014187Y011517D01*
X013903Y011233D01*
X013903Y010894D01*
X013822Y010894D01*
X013689Y010839D01*
X013488Y010638D01*
X013153Y010303D01*
X013153Y011662D01*
X013153Y011806D01*
X013099Y011938D01*
X012834Y012203D01*
X012815Y012249D01*
X012708Y012355D01*
X012569Y012413D01*
X012418Y012413D01*
X012279Y012355D01*
X012172Y012249D01*
X012114Y012109D01*
X012114Y011959D01*
X012172Y011819D01*
X012279Y011713D01*
X012325Y011694D01*
X012433Y011585D01*
X012433Y010155D01*
X012414Y010109D01*
X012414Y009959D01*
X012472Y009819D01*
X012571Y009721D01*
X011544Y008694D01*
X009915Y008694D01*
X009869Y008713D01*
X009718Y008713D01*
X009579Y008655D01*
X009472Y008549D01*
X009414Y008409D01*
X009414Y008259D01*
X009472Y008119D01*
X009579Y008013D01*
X009718Y007955D01*
X009869Y007955D01*
X009915Y007974D01*
X009941Y007974D01*
X009914Y007909D01*
X009914Y007759D01*
X009972Y007619D01*
X010079Y007513D01*
X010218Y007455D01*
X010369Y007455D01*
X010415Y007474D01*
X010624Y007474D01*
X010288Y007138D01*
X010233Y007006D01*
X010233Y006955D01*
X010214Y006909D01*
X010214Y006759D01*
X010272Y006619D01*
X010379Y006513D01*
X010518Y006455D01*
X010669Y006455D01*
X010808Y006513D01*
X010915Y006619D01*
X010972Y006759D01*
X010972Y006804D01*
X011242Y007074D01*
X011922Y007074D01*
X012065Y007074D01*
X012197Y007129D01*
X012933Y007865D01*
X012933Y007762D01*
X012933Y006355D01*
X012914Y006309D01*
X012914Y006159D01*
X012972Y006019D01*
X013067Y005924D01*
X009396Y005924D01*
X007309Y008012D01*
X007283Y008037D01*
X007283Y008637D01*
X007283Y008937D01*
X007283Y009237D01*
X007283Y009731D01*
X007209Y009912D01*
X007071Y010049D01*
X006891Y010124D01*
X006696Y010124D01*
X006516Y010049D01*
X006378Y009912D01*
X006303Y009731D01*
X006303Y009237D01*
X006303Y008937D01*
X006303Y008637D01*
X006303Y007737D01*
X006378Y007556D01*
X006516Y007419D01*
X006616Y007319D01*
X008916Y005019D01*
X009096Y004944D01*
X009291Y004944D01*
X013891Y004944D01*
X014071Y005019D01*
X014209Y005156D02*
X014209Y005156D01*
X014357Y005305D02*
X016631Y005305D01*
X016631Y005544D02*
X015684Y005544D01*
X015922Y005782D02*
X016631Y005782D01*
X016631Y006021D02*
X015942Y006021D01*
X015916Y006259D02*
X016631Y006259D01*
X016631Y006498D02*
X015678Y006498D01*
X015877Y006736D02*
X016631Y006736D01*
X016631Y006975D02*
X015942Y006975D01*
X015942Y007213D02*
X016631Y007213D01*
X016631Y007452D02*
X015723Y007452D01*
X015831Y007690D02*
X016631Y007690D01*
X016631Y007929D02*
X015942Y007929D01*
X015942Y008168D02*
X016631Y008168D01*
X016631Y008406D02*
X016074Y008406D01*
X016305Y008645D02*
X016631Y008645D01*
X016631Y008883D02*
X016353Y008883D01*
X016353Y009122D02*
X016631Y009122D01*
X016631Y009360D02*
X016353Y009360D01*
X016353Y009599D02*
X016631Y009599D01*
X016631Y009837D02*
X016353Y009837D01*
X016353Y010076D02*
X016631Y010076D01*
X016631Y010314D02*
X016353Y010314D01*
X016353Y010553D02*
X016631Y010553D01*
X016631Y010791D02*
X016353Y010791D01*
X016353Y011030D02*
X016631Y011030D01*
X016631Y011269D02*
X016353Y011269D01*
X016229Y011507D02*
X016631Y011507D01*
X016631Y011746D02*
X015991Y011746D01*
X015942Y011984D02*
X016631Y011984D01*
X016631Y012223D02*
X015942Y012223D01*
X015714Y012461D02*
X016631Y012461D01*
X016631Y012700D02*
X015812Y012700D01*
X015922Y012938D02*
X016631Y012938D01*
X016631Y013177D02*
X015922Y013177D01*
X015922Y013225D02*
X015630Y013517D01*
X015423Y013517D01*
X015423Y013018D01*
X015922Y013018D01*
X015922Y013225D01*
X015732Y013415D02*
X016631Y013415D01*
X016631Y013654D02*
X003663Y013654D01*
X003960Y013415D02*
X014113Y013415D01*
X013923Y013177D02*
X004024Y013177D01*
X003975Y012938D02*
X013923Y012938D01*
X014033Y012700D02*
X003748Y012700D01*
X003824Y012223D02*
X011446Y012223D01*
X011479Y012255D02*
X011372Y012149D01*
X011314Y012009D01*
X011314Y011859D01*
X011333Y011813D01*
X011333Y010655D01*
X011314Y010609D01*
X011314Y010459D01*
X011372Y010319D01*
X011479Y010213D01*
X011618Y010155D01*
X011769Y010155D01*
X011908Y010213D01*
X012015Y010319D01*
X012072Y010459D01*
X012072Y010609D01*
X012053Y010655D01*
X012053Y011813D01*
X012072Y011859D01*
X012072Y012009D01*
X012015Y012149D01*
X011908Y012255D01*
X011769Y012313D01*
X011618Y012313D01*
X011479Y012255D01*
X011314Y011984D02*
X004004Y011984D01*
X004044Y011746D02*
X011333Y011746D01*
X011333Y011507D02*
X003974Y011507D01*
X003672Y011269D02*
X011333Y011269D01*
X011333Y011030D02*
X002704Y011030D01*
X002704Y011269D02*
X002748Y011269D01*
X003210Y010791D02*
X003210Y010791D01*
X003210Y010553D02*
X003210Y010553D01*
X003210Y010314D02*
X003210Y010314D01*
X003210Y010076D02*
X003210Y010076D01*
X002881Y009837D02*
X006347Y009837D01*
X006303Y009599D02*
X004964Y009599D01*
X005202Y009360D02*
X006303Y009360D01*
X006303Y009122D02*
X005437Y009122D01*
X005513Y008883D02*
X006303Y008883D01*
X006303Y008645D02*
X005513Y008645D01*
X005513Y008406D02*
X006303Y008406D01*
X006303Y008168D02*
X005513Y008168D01*
X005513Y007929D02*
X006303Y007929D01*
X006322Y007690D02*
X005513Y007690D01*
X005513Y007452D02*
X006483Y007452D01*
X006721Y007213D02*
X005513Y007213D01*
X005513Y006975D02*
X006960Y006975D01*
X007198Y006736D02*
X005513Y006736D01*
X005513Y006498D02*
X007437Y006498D01*
X007675Y006259D02*
X005513Y006259D01*
X005513Y006021D02*
X007914Y006021D01*
X008152Y005782D02*
X005513Y005782D01*
X005513Y005544D02*
X008391Y005544D01*
X009061Y006259D02*
X012914Y006259D01*
X012971Y006021D02*
X009300Y006021D01*
X008823Y006498D02*
X010415Y006498D01*
X010224Y006736D02*
X008584Y006736D01*
X008346Y006975D02*
X010233Y006975D01*
X010364Y007213D02*
X008107Y007213D01*
X007868Y007452D02*
X010602Y007452D01*
X010293Y007834D02*
X011793Y007834D01*
X013993Y010034D01*
X014406Y010034D01*
X014423Y010017D01*
X014093Y009534D02*
X011993Y007434D01*
X011093Y007434D01*
X010593Y006934D01*
X010593Y006834D01*
X010772Y006498D02*
X012933Y006498D01*
X012933Y006736D02*
X010963Y006736D01*
X011143Y006975D02*
X012933Y006975D01*
X012933Y007213D02*
X012282Y007213D01*
X012520Y007452D02*
X012933Y007452D01*
X012933Y007690D02*
X012759Y007690D01*
X013293Y007834D02*
X013993Y008534D01*
X013293Y007834D02*
X013293Y006234D01*
X011693Y008334D02*
X013793Y010434D01*
X013893Y010534D01*
X013642Y010791D02*
X013153Y010791D01*
X013153Y010553D02*
X013403Y010553D01*
X013488Y010638D02*
X013488Y010638D01*
X013165Y010314D02*
X013153Y010314D01*
X012793Y010034D02*
X012793Y011734D01*
X012493Y012034D01*
X012825Y012223D02*
X013903Y012223D01*
X014131Y012461D02*
X002704Y012461D01*
X003210Y012700D02*
X003210Y012700D01*
X003210Y012938D02*
X003210Y012938D01*
X003210Y013177D02*
X003210Y013177D01*
X003210Y013415D02*
X003210Y013415D01*
X003210Y013654D02*
X003210Y013654D01*
X002757Y013654D02*
X002704Y013654D01*
X002704Y013893D02*
X016631Y013893D01*
X016631Y014131D02*
X003860Y014131D01*
X004018Y014370D02*
X016631Y014370D01*
X016631Y014608D02*
X004044Y014608D01*
X004534Y016039D02*
X004838Y016039D01*
X004838Y016278D02*
X004534Y016278D01*
X004534Y016517D02*
X004838Y016517D01*
X004838Y016755D02*
X004534Y016755D01*
X004458Y016994D02*
X004914Y016994D01*
X005247Y017232D02*
X004125Y017232D01*
X003869Y017232D02*
X002747Y017232D01*
X002491Y017232D02*
X001993Y017232D01*
X001993Y016994D02*
X002158Y016994D01*
X002083Y016755D02*
X001993Y016755D01*
X001993Y016517D02*
X002083Y016517D01*
X002083Y016278D02*
X001993Y016278D01*
X001993Y016039D02*
X002083Y016039D01*
X002170Y015801D02*
X001993Y015801D01*
X001993Y015562D02*
X002011Y015562D01*
X003156Y016039D02*
X003460Y016039D01*
X003460Y016278D02*
X003156Y016278D01*
X003156Y016517D02*
X003460Y016517D01*
X003460Y016755D02*
X003156Y016755D01*
X003081Y016994D02*
X003536Y016994D01*
X001993Y017471D02*
X014567Y017471D01*
X014348Y017232D02*
X012393Y017232D01*
X012137Y017232D02*
X011015Y017232D01*
X010759Y017232D02*
X009637Y017232D01*
X009381Y017232D02*
X008259Y017232D01*
X008003Y017232D02*
X006881Y017232D01*
X006625Y017232D02*
X005503Y017232D01*
X005836Y016994D02*
X006292Y016994D01*
X006216Y016755D02*
X005912Y016755D01*
X005912Y016517D02*
X006216Y016517D01*
X006216Y016278D02*
X005912Y016278D01*
X005912Y016039D02*
X006216Y016039D01*
X007290Y016039D02*
X007594Y016039D01*
X007594Y016278D02*
X007290Y016278D01*
X007290Y016517D02*
X007594Y016517D01*
X007594Y016755D02*
X007290Y016755D01*
X007214Y016994D02*
X007670Y016994D01*
X008592Y016994D02*
X009048Y016994D01*
X008972Y016755D02*
X008668Y016755D01*
X008668Y016517D02*
X008972Y016517D01*
X008972Y016278D02*
X008668Y016278D01*
X008668Y016039D02*
X008972Y016039D01*
X010046Y016039D02*
X010350Y016039D01*
X010350Y016278D02*
X010046Y016278D01*
X010046Y016517D02*
X010350Y016517D01*
X010350Y016755D02*
X010046Y016755D01*
X009970Y016994D02*
X010426Y016994D01*
X011348Y016994D02*
X011804Y016994D01*
X011728Y016755D02*
X011424Y016755D01*
X011424Y016517D02*
X011728Y016517D01*
X011728Y016278D02*
X011424Y016278D01*
X011424Y016039D02*
X011728Y016039D01*
X012580Y015085D02*
X014961Y015085D01*
X014587Y015324D02*
X012753Y015324D01*
X012785Y015562D02*
X014360Y015562D01*
X014222Y015801D02*
X012785Y015801D01*
X012802Y016039D02*
X014140Y016039D01*
X014092Y016278D02*
X012802Y016278D01*
X012802Y016517D02*
X014092Y016517D01*
X014135Y016755D02*
X012802Y016755D01*
X012726Y016994D02*
X014211Y016994D01*
X016066Y015085D02*
X016631Y015085D01*
X016631Y015324D02*
X016439Y015324D01*
X016631Y014847D02*
X012276Y014847D01*
X014422Y013415D02*
X014423Y013415D01*
X014422Y013177D02*
X014423Y013177D01*
X014423Y013018D02*
X014922Y013018D01*
X014923Y013018D02*
X015422Y013018D01*
X015422Y013017D01*
X014923Y013017D01*
X014923Y012810D01*
X014922Y012810D02*
X014922Y013017D01*
X014423Y013017D01*
X014423Y013018D01*
X014812Y012700D02*
X015033Y012700D01*
X014922Y012810D02*
X014644Y012532D01*
X014923Y012253D01*
X015201Y012532D01*
X014923Y012810D01*
X014922Y012938D02*
X014923Y012938D01*
X014922Y013177D02*
X014923Y013177D01*
X015113Y013415D02*
X014732Y013415D01*
X015422Y013415D02*
X015423Y013415D01*
X015422Y013177D02*
X015423Y013177D01*
X015131Y012461D02*
X014714Y012461D01*
X014423Y012017D02*
X014906Y011534D01*
X015423Y011017D02*
X014939Y010534D01*
X015423Y010017D02*
X014939Y009534D01*
X015693Y008534D02*
X015993Y008834D01*
X015993Y011234D01*
X015793Y011434D01*
X015693Y011534D01*
X014177Y011507D02*
X013153Y011507D01*
X013153Y011269D02*
X013938Y011269D01*
X013903Y011030D02*
X013153Y011030D01*
X013153Y011746D02*
X013959Y011746D01*
X013903Y011984D02*
X013052Y011984D01*
X012433Y011507D02*
X012053Y011507D01*
X012053Y011269D02*
X012433Y011269D01*
X012433Y011030D02*
X012053Y011030D01*
X012053Y010791D02*
X012433Y010791D01*
X012433Y010553D02*
X012072Y010553D01*
X012010Y010314D02*
X012433Y010314D01*
X012414Y010076D02*
X007007Y010076D01*
X007240Y009837D02*
X012465Y009837D01*
X012449Y009599D02*
X007283Y009599D01*
X007283Y009360D02*
X012211Y009360D01*
X011972Y009122D02*
X007283Y009122D01*
X007283Y008883D02*
X011733Y008883D01*
X011693Y008334D02*
X009793Y008334D01*
X009452Y008168D02*
X007283Y008168D01*
X007391Y007929D02*
X009922Y007929D01*
X009943Y007690D02*
X007630Y007690D01*
X007283Y008406D02*
X009414Y008406D01*
X009568Y008645D02*
X007283Y008645D01*
X006580Y010076D02*
X003910Y010076D01*
X004024Y010314D02*
X011377Y010314D01*
X011314Y010553D02*
X004004Y010553D01*
X003849Y010791D02*
X011333Y010791D01*
X011693Y010534D02*
X011693Y011934D01*
X011941Y012223D02*
X012161Y012223D01*
X012114Y011984D02*
X012072Y011984D01*
X012053Y011746D02*
X012246Y011746D01*
X016631Y004589D02*
X003113Y004589D01*
X003156Y002920D02*
X003460Y002920D01*
X003460Y002681D02*
X003156Y002681D01*
X003156Y002442D02*
X003460Y002442D01*
X003469Y002204D02*
X003148Y002204D01*
X003013Y001965D02*
X003604Y001965D01*
X004391Y001965D02*
X004981Y001965D01*
X004847Y002204D02*
X004526Y002204D01*
X004534Y002442D02*
X004838Y002442D01*
X004838Y002681D02*
X004534Y002681D01*
X004534Y002920D02*
X004838Y002920D01*
X005769Y001965D02*
X006359Y001965D01*
X006225Y002204D02*
X005904Y002204D01*
X005912Y002442D02*
X006216Y002442D01*
X006216Y002681D02*
X005912Y002681D01*
X005912Y002920D02*
X006216Y002920D01*
X007147Y001965D02*
X007737Y001965D01*
X007603Y002204D02*
X007282Y002204D01*
X007290Y002442D02*
X007594Y002442D01*
X007594Y002681D02*
X007290Y002681D01*
X007290Y002920D02*
X007594Y002920D01*
X008525Y001965D02*
X009115Y001965D01*
X008981Y002204D02*
X008660Y002204D01*
X008668Y002442D02*
X008972Y002442D01*
X008972Y002681D02*
X008668Y002681D01*
X008668Y002920D02*
X008972Y002920D01*
X009903Y001965D02*
X010493Y001965D01*
X010359Y002204D02*
X010038Y002204D01*
X010046Y002442D02*
X010350Y002442D01*
X010350Y002681D02*
X010046Y002681D01*
X010046Y002920D02*
X010350Y002920D01*
X012528Y003397D02*
X014316Y003397D01*
X014184Y003158D02*
X014029Y003158D01*
X014034Y003025D02*
X014034Y003025D01*
X014025Y002920D02*
X014120Y002920D01*
X014034Y002778D02*
X014034Y002778D01*
X014034Y002681D02*
X014092Y002681D01*
X014092Y002442D02*
X014034Y002442D01*
X014017Y002204D02*
X014155Y002204D01*
X014254Y001965D02*
X014034Y001965D01*
X013969Y001727D02*
X014404Y001727D01*
X013070Y002204D02*
X012794Y002204D01*
X012802Y002442D02*
X013053Y002442D01*
X013093Y002681D02*
X012802Y002681D01*
X012802Y002920D02*
X013062Y002920D01*
X013058Y003158D02*
X012749Y003158D01*
X013789Y003390D02*
X013789Y003390D01*
X016197Y003874D02*
X016631Y003874D01*
X016631Y003635D02*
X016515Y003635D01*
D16*
X015423Y006017D02*
X014423Y006017D01*
X014377Y006017D01*
X013793Y005434D01*
X009193Y005434D01*
X006893Y007734D01*
X006793Y007834D01*
X006793Y008734D01*
X006793Y009034D01*
X006793Y009334D01*
X006793Y009634D01*
D17*
X013893Y010534D02*
X014939Y010534D01*
X014939Y009534D02*
X014093Y009534D01*
X013993Y008534D02*
X015693Y008534D01*
X015693Y011534D02*
X014906Y011534D01*
D18*
X012093Y015334D02*
X009493Y015334D01*
X009509Y015350D01*
X009509Y016407D01*
X009493Y015334D02*
X006793Y015334D01*
X006753Y015374D01*
X006753Y016407D01*
X006793Y015334D02*
X004093Y015334D01*
X002518Y015334D01*
X002234Y015050D01*
X002184Y015000D01*
X002184Y009800D01*
X002734Y009250D01*
X004578Y009250D01*
X004993Y008834D01*
X004993Y008334D01*
X004993Y008834D01*
X004993Y008334D02*
X004993Y007834D01*
X004993Y007334D01*
X004993Y005534D01*
X004693Y005234D01*
X002993Y005234D01*
X002593Y004834D01*
X002593Y003734D01*
X002693Y003634D01*
X002619Y003560D01*
X002619Y003360D01*
X002619Y002628D01*
X002693Y003634D02*
X004993Y003634D01*
X005393Y003634D01*
X005375Y003616D01*
X005375Y002628D01*
X005393Y003634D02*
X008193Y003634D01*
X008131Y003572D01*
X008131Y002628D01*
X008193Y003634D02*
X010593Y003634D01*
X010693Y003534D01*
X010887Y003340D01*
X010887Y002628D01*
X012093Y015334D02*
X012265Y015506D01*
X012265Y016407D01*
X004093Y015334D02*
X003997Y015430D01*
X003997Y016407D01*
D19*
X003308Y007540D03*
X015513Y002628D03*
X015513Y016407D03*
M02*
