%
M48
M72
T01C0.0320
T02C0.0394
T03C0.1260
%
T01
X1236Y7248
X1236Y11185
X1236Y15122
X1236Y19059
X1236Y22996
X1236Y26933
X1236Y30870
X1236Y34807
X1236Y38744
X1236Y42681
X1236Y46618
X1236Y50555
X1236Y54492
X1236Y58429
X1236Y62366
X1236Y66303
X1173Y70240
X2173Y70240
X2236Y66303
X2236Y62366
X2236Y58429
X2236Y54492
X2236Y50555
X2236Y46618
X2236Y42681
X2236Y38744
X2236Y34807
X2236Y30870
X2236Y26933
X2236Y22996
X2236Y19059
X2236Y15122
X2236Y11185
X2236Y7248
X3205Y3311
X4205Y3311
X5173Y7248
X5173Y11185
X5173Y15122
X5173Y19059
X5173Y22996
X5173Y26933
X5173Y30870
X5173Y34807
X5173Y38744
X5173Y42681
X5173Y46618
X5173Y50555
X5173Y54492
X5173Y58429
X5173Y62366
X5173Y66303
X5236Y70240
X6173Y66303
X6173Y62366
X6173Y58429
X6173Y54492
X6173Y50555
X6173Y46618
X6173Y42681
X6173Y38744
X6173Y34807
X6173Y30870
X6173Y26933
X6173Y22996
X6173Y19059
X6173Y15122
X6173Y11185
X6173Y7248
X6236Y70240
X4205Y74177
X3205Y74177
T02
X1342Y1342
X2917Y1342
X4492Y1342
X6067Y1342
X6067Y76146
X4492Y76146
X2917Y76146
X1342Y76146
T03
X3705Y13153
X3705Y64334
M30
