%
M48
M72
T01C0.0320
T02C0.0591
T03C0.1260
%
T01
X1236Y4098
X2236Y4098
X2236Y8035
X1236Y8035
X1236Y11972
X2236Y11972
X5173Y11972
X6173Y11972
X6173Y8035
X5173Y8035
X5173Y4098
X6173Y4098
T02
X1342Y1342
X2917Y1342
X4492Y1342
X6067Y1342
X6067Y14728
X4492Y14728
X2917Y14728
X1342Y14728
T03
X3705Y6067
X3705Y10004
M30
