%
M48
M72
T01C0.0118
T02C0.0360
T03C0.0394
T04C0.1260
%
T01
X3193Y4334
X3493Y4334
X5693Y4234
X5693Y4534
X4993Y7334
X4993Y7834
X4993Y8334
X4993Y8834
X6793Y8734
X6793Y9034
X6793Y9334
X6793Y9634
X6734Y10950
X5234Y12550
X4784Y12050
X4784Y11750
X4784Y11450
X5384Y14400
X5634Y14700
X7534Y14450
X7734Y14700
X9993Y14734
X9993Y14234
X11693Y11934
X12493Y12034
X11693Y10534
X12793Y10034
X10293Y7834
X9793Y8334
X10593Y6834
X8493Y4534
X8493Y4234
X11093Y4334
X11093Y4034
X13293Y6234
X9693Y11234
X12593Y14034
X12593Y14434
T02
X14423Y6017
X14423Y7017
X15423Y7017
X15423Y6017
X15423Y8017
X15423Y9017
X15423Y10017
X15423Y11017
X15423Y12017
X15423Y13017
X14423Y13017
X14423Y12017
X14423Y11017
X14423Y10017
X14423Y9017
X14423Y8017
T03
X2619Y2628
X3997Y2628
X5375Y2628
X6753Y2628
X8131Y2628
X9509Y2628
X10887Y2628
X12265Y2628
X3210Y10403
X3210Y11781
X3210Y13159
X3210Y14537
X2619Y16407
X3997Y16407
X5375Y16407
X6753Y16407
X8131Y16407
X9509Y16407
X10887Y16407
X12265Y16407
T04
X3308Y7540
X15513Y2628
X15513Y16407
M30
