G75*
G70*
%OFA0B0*%
%FSLAX24Y24*%
%IPPOS*%
%LPD*%
%AMOC8*
5,1,8,0,0,1.08239X$1,22.5*
%
%ADD10C,0.0118*%
%ADD11C,0.0180*%
%ADD12C,0.0100*%
%ADD13OC8,0.0560*%
%ADD14C,0.0780*%
%ADD15R,0.0591X0.0197*%
%ADD16R,0.0197X0.0591*%
%ADD17R,0.0512X0.0591*%
%ADD18C,0.0440*%
%ADD19R,0.0630X0.0512*%
%ADD20R,0.0472X0.0472*%
%ADD21R,0.0800X0.0260*%
%ADD22R,0.0591X0.0512*%
%ADD23R,0.0512X0.0630*%
%ADD24R,0.2441X0.2126*%
%ADD25R,0.0630X0.0394*%
%ADD26R,0.1102X0.1496*%
%ADD27OC8,0.0630*%
%ADD28C,0.0630*%
%ADD29C,0.0594*%
%ADD30OC8,0.0600*%
%ADD31C,0.2000*%
%ADD32C,0.0120*%
%ADD33C,0.0278*%
%ADD34C,0.0160*%
%ADD35C,0.0700*%
%ADD36C,0.0660*%
%ADD37C,0.2362*%
D10*
X000161Y002590D02*
X000161Y022866D01*
X022012Y022866D01*
X022012Y002590D01*
X000161Y002590D01*
D11*
X003525Y020880D02*
X003525Y021401D01*
X003698Y021401D02*
X003351Y021401D01*
X003996Y021314D02*
X003996Y020967D01*
X004083Y020880D01*
X004256Y020880D01*
X004343Y020967D01*
X004343Y021314D01*
X004256Y021401D01*
X004083Y021401D01*
X003996Y021314D01*
X004640Y021401D02*
X004640Y020880D01*
X004640Y021054D02*
X004901Y021054D01*
X004987Y021140D01*
X004987Y021314D01*
X004901Y021401D01*
X004640Y021401D01*
D12*
X003739Y021940D02*
X003472Y021940D01*
X003739Y022207D01*
X003739Y022274D01*
X003672Y022341D01*
X003538Y022341D01*
X003472Y022274D01*
X003278Y022207D02*
X003145Y021940D01*
X003011Y022207D01*
D13*
X010161Y021490D03*
X010161Y020490D03*
X011161Y020490D03*
X012161Y020490D03*
X012161Y021490D03*
X011161Y021490D03*
X013161Y021490D03*
X014161Y021490D03*
X014161Y020490D03*
X013161Y020490D03*
X019661Y018090D03*
X019661Y017090D03*
X019661Y016090D03*
X019661Y015090D03*
X019661Y014090D03*
X019661Y013090D03*
X019661Y012090D03*
X019661Y011090D03*
X020661Y011090D03*
X020661Y012090D03*
X020661Y013090D03*
X020661Y014090D03*
X020661Y015090D03*
X020661Y016090D03*
X020661Y017090D03*
X020661Y018090D03*
D14*
X005841Y005480D02*
X005841Y004700D01*
X003871Y004700D02*
X003871Y005480D01*
D15*
G36*
X011401Y012585D02*
X010985Y013001D01*
X011123Y013139D01*
X011539Y012723D01*
X011401Y012585D01*
G37*
G36*
X011624Y012808D02*
X011208Y013224D01*
X011346Y013362D01*
X011762Y012946D01*
X011624Y012808D01*
G37*
G36*
X011847Y013030D02*
X011431Y013446D01*
X011569Y013584D01*
X011985Y013168D01*
X011847Y013030D01*
G37*
G36*
X012069Y013253D02*
X011653Y013669D01*
X011791Y013807D01*
X012207Y013391D01*
X012069Y013253D01*
G37*
G36*
X012292Y013476D02*
X011876Y013892D01*
X012014Y014030D01*
X012430Y013614D01*
X012292Y013476D01*
G37*
G36*
X012515Y013699D02*
X012099Y014115D01*
X012237Y014253D01*
X012653Y013837D01*
X012515Y013699D01*
G37*
G36*
X012738Y013921D02*
X012322Y014337D01*
X012460Y014475D01*
X012876Y014059D01*
X012738Y013921D01*
G37*
G36*
X012960Y014144D02*
X012544Y014560D01*
X012682Y014698D01*
X013098Y014282D01*
X012960Y014144D01*
G37*
G36*
X013183Y014367D02*
X012767Y014783D01*
X012905Y014921D01*
X013321Y014505D01*
X013183Y014367D01*
G37*
G36*
X013406Y014589D02*
X012990Y015005D01*
X013128Y015143D01*
X013544Y014727D01*
X013406Y014589D01*
G37*
G36*
X013628Y014812D02*
X013212Y015228D01*
X013350Y015366D01*
X013766Y014950D01*
X013628Y014812D01*
G37*
G36*
X010399Y018041D02*
X009983Y018457D01*
X010121Y018595D01*
X010537Y018179D01*
X010399Y018041D01*
G37*
G36*
X010176Y017819D02*
X009760Y018235D01*
X009898Y018373D01*
X010314Y017957D01*
X010176Y017819D01*
G37*
G36*
X009954Y017596D02*
X009538Y018012D01*
X009676Y018150D01*
X010092Y017734D01*
X009954Y017596D01*
G37*
G36*
X009731Y017373D02*
X009315Y017789D01*
X009453Y017927D01*
X009869Y017511D01*
X009731Y017373D01*
G37*
G36*
X009508Y017151D02*
X009092Y017567D01*
X009230Y017705D01*
X009646Y017289D01*
X009508Y017151D01*
G37*
G36*
X009286Y016928D02*
X008870Y017344D01*
X009008Y017482D01*
X009424Y017066D01*
X009286Y016928D01*
G37*
G36*
X009063Y016705D02*
X008647Y017121D01*
X008785Y017259D01*
X009201Y016843D01*
X009063Y016705D01*
G37*
G36*
X008840Y016482D02*
X008424Y016898D01*
X008562Y017036D01*
X008978Y016620D01*
X008840Y016482D01*
G37*
G36*
X008617Y016260D02*
X008201Y016676D01*
X008339Y016814D01*
X008755Y016398D01*
X008617Y016260D01*
G37*
G36*
X008395Y016037D02*
X007979Y016453D01*
X008117Y016591D01*
X008533Y016175D01*
X008395Y016037D01*
G37*
G36*
X008172Y015814D02*
X007756Y016230D01*
X007894Y016368D01*
X008310Y015952D01*
X008172Y015814D01*
G37*
D16*
G36*
X007894Y014812D02*
X007756Y014950D01*
X008172Y015366D01*
X008310Y015228D01*
X007894Y014812D01*
G37*
G36*
X008117Y014589D02*
X007979Y014727D01*
X008395Y015143D01*
X008533Y015005D01*
X008117Y014589D01*
G37*
G36*
X008339Y014367D02*
X008201Y014505D01*
X008617Y014921D01*
X008755Y014783D01*
X008339Y014367D01*
G37*
G36*
X008562Y014144D02*
X008424Y014282D01*
X008840Y014698D01*
X008978Y014560D01*
X008562Y014144D01*
G37*
G36*
X008785Y013921D02*
X008647Y014059D01*
X009063Y014475D01*
X009201Y014337D01*
X008785Y013921D01*
G37*
G36*
X009008Y013699D02*
X008870Y013837D01*
X009286Y014253D01*
X009424Y014115D01*
X009008Y013699D01*
G37*
G36*
X009230Y013476D02*
X009092Y013614D01*
X009508Y014030D01*
X009646Y013892D01*
X009230Y013476D01*
G37*
G36*
X009453Y013253D02*
X009315Y013391D01*
X009731Y013807D01*
X009869Y013669D01*
X009453Y013253D01*
G37*
G36*
X009676Y013030D02*
X009538Y013168D01*
X009954Y013584D01*
X010092Y013446D01*
X009676Y013030D01*
G37*
G36*
X009898Y012808D02*
X009760Y012946D01*
X010176Y013362D01*
X010314Y013224D01*
X009898Y012808D01*
G37*
G36*
X010121Y012585D02*
X009983Y012723D01*
X010399Y013139D01*
X010537Y013001D01*
X010121Y012585D01*
G37*
G36*
X013350Y015814D02*
X013212Y015952D01*
X013628Y016368D01*
X013766Y016230D01*
X013350Y015814D01*
G37*
G36*
X013128Y016037D02*
X012990Y016175D01*
X013406Y016591D01*
X013544Y016453D01*
X013128Y016037D01*
G37*
G36*
X012905Y016260D02*
X012767Y016398D01*
X013183Y016814D01*
X013321Y016676D01*
X012905Y016260D01*
G37*
G36*
X012682Y016482D02*
X012544Y016620D01*
X012960Y017036D01*
X013098Y016898D01*
X012682Y016482D01*
G37*
G36*
X012460Y016705D02*
X012322Y016843D01*
X012738Y017259D01*
X012876Y017121D01*
X012460Y016705D01*
G37*
G36*
X012237Y016928D02*
X012099Y017066D01*
X012515Y017482D01*
X012653Y017344D01*
X012237Y016928D01*
G37*
G36*
X012014Y017151D02*
X011876Y017289D01*
X012292Y017705D01*
X012430Y017567D01*
X012014Y017151D01*
G37*
G36*
X011791Y017373D02*
X011653Y017511D01*
X012069Y017927D01*
X012207Y017789D01*
X011791Y017373D01*
G37*
G36*
X011569Y017596D02*
X011431Y017734D01*
X011847Y018150D01*
X011985Y018012D01*
X011569Y017596D01*
G37*
G36*
X011346Y017819D02*
X011208Y017957D01*
X011624Y018373D01*
X011762Y018235D01*
X011346Y017819D01*
G37*
G36*
X011123Y018041D02*
X010985Y018179D01*
X011401Y018595D01*
X011539Y018457D01*
X011123Y018041D01*
G37*
D17*
X008635Y017990D03*
X007887Y017990D03*
X005235Y017590D03*
X004487Y017590D03*
X004487Y016690D03*
X005235Y016690D03*
X010987Y011590D03*
X011735Y011590D03*
X014187Y008590D03*
X014935Y008590D03*
X015087Y013690D03*
X015835Y013690D03*
D18*
X006834Y016190D02*
X006394Y016190D01*
X006394Y018190D02*
X006834Y018190D01*
D19*
X009861Y010064D03*
X009861Y009316D03*
X005561Y009484D03*
X005561Y008697D03*
X020461Y008264D03*
X020461Y007516D03*
D20*
X009861Y010777D03*
X009861Y011604D03*
D21*
X013051Y011840D03*
X013051Y012340D03*
X013051Y012840D03*
X013051Y011340D03*
X013051Y010840D03*
X013051Y010340D03*
X013051Y009840D03*
X013051Y009340D03*
X015471Y009340D03*
X015471Y009840D03*
X015471Y010340D03*
X015471Y010840D03*
X015471Y011340D03*
X015471Y011840D03*
X015471Y012340D03*
X015471Y012840D03*
D22*
X016661Y012964D03*
X016661Y012216D03*
X016661Y011264D03*
X016661Y010516D03*
X016661Y009664D03*
X016661Y008916D03*
X012061Y009216D03*
X012061Y009964D03*
D23*
X005455Y013890D03*
X004668Y013890D03*
X008187Y018790D03*
X008935Y018790D03*
D24*
X002077Y011890D03*
D25*
X004951Y010993D03*
X004951Y012788D03*
D26*
X004418Y008890D03*
X001505Y008890D03*
D27*
X002061Y014990D03*
X007761Y010990D03*
D28*
X006361Y010990D03*
X003461Y014990D03*
D29*
X005972Y021241D02*
X005972Y021834D01*
X007350Y021834D02*
X007350Y021241D01*
D30*
X011101Y007690D03*
X012181Y007690D03*
X011641Y006690D03*
X012721Y006690D03*
X013261Y007690D03*
X013801Y006690D03*
X014341Y007690D03*
X014881Y006690D03*
X015421Y007690D03*
D31*
X018191Y007190D03*
X008331Y007190D03*
D32*
X009861Y010064D02*
X009861Y010777D01*
X009861Y011604D02*
X009861Y011790D01*
X009461Y012190D01*
X009461Y012954D01*
X009815Y013307D01*
X010037Y013085D02*
X010261Y013309D01*
X010261Y014190D01*
X010161Y014290D01*
X010161Y015090D01*
X009761Y015290D02*
X010634Y016163D01*
X010634Y016163D01*
X009369Y017428D01*
X008807Y017990D01*
X008635Y017990D01*
X008461Y018164D01*
X008461Y018390D01*
X008187Y018664D01*
X008187Y018790D01*
X008187Y020016D01*
X008935Y020764D01*
X009161Y020990D01*
X010614Y020990D01*
X011114Y021490D01*
X011161Y021490D01*
X011661Y020937D02*
X012161Y021437D01*
X012161Y021490D01*
X011661Y020937D02*
X011661Y019990D01*
X010861Y019190D01*
X009661Y019190D01*
X009461Y019190D01*
X009361Y019090D01*
X009361Y018790D01*
X008935Y018790D01*
X009361Y018790D02*
X009361Y017881D01*
X009592Y017650D01*
X009147Y017205D02*
X009561Y016790D01*
X009561Y016390D01*
X009161Y015790D02*
X008861Y015790D01*
X008780Y015790D01*
X008256Y016314D01*
X008478Y016537D02*
X008925Y016090D01*
X009061Y016090D01*
X009161Y015790D02*
X009361Y015590D01*
X009761Y015290D02*
X009761Y014590D01*
X009147Y013976D01*
X009369Y013753D02*
X008961Y013345D01*
X008961Y013190D01*
X010260Y012862D02*
X010461Y013063D01*
X010461Y014690D01*
X010761Y014490D02*
X010761Y013363D01*
X011262Y012862D01*
X011485Y013085D02*
X011061Y013509D01*
X011061Y014190D01*
X011184Y014722D02*
X011184Y015568D01*
X011184Y015613D01*
X010634Y016163D01*
X011184Y015568D02*
X012599Y016982D01*
X012821Y016759D02*
X014252Y018190D01*
X016961Y018190D01*
X016461Y017790D02*
X014298Y017790D01*
X013044Y016537D01*
X013267Y016314D02*
X014243Y017290D01*
X014343Y017390D01*
X017961Y017390D01*
X017561Y016990D02*
X014388Y016990D01*
X013489Y016091D01*
X013991Y015590D02*
X014461Y015590D01*
X015261Y016390D01*
X015361Y016390D01*
X018661Y016390D01*
X019061Y016790D01*
X019061Y017290D01*
X019361Y017590D01*
X019561Y017590D01*
X021061Y017590D01*
X021361Y017290D01*
X021361Y016390D01*
X021061Y016090D01*
X020661Y016090D01*
X021261Y015590D02*
X021261Y014890D01*
X020961Y014590D01*
X019161Y014590D01*
X018761Y014990D01*
X016761Y014990D01*
X015461Y014990D01*
X015161Y014690D01*
X015061Y014690D01*
X015161Y014690D01*
X015061Y014690D02*
X014861Y014690D01*
X014161Y013990D01*
X013252Y013990D01*
X012821Y014421D01*
X012599Y014198D02*
X013107Y013690D01*
X015087Y013690D01*
X015835Y013690D02*
X016661Y013690D01*
X016661Y012964D01*
X016661Y012216D02*
X016285Y011840D01*
X015471Y011840D01*
X015471Y012340D02*
X014811Y012340D01*
X013961Y013190D01*
X013811Y012840D02*
X014461Y012190D01*
X014461Y011390D01*
X013961Y010790D02*
X013961Y011990D01*
X013611Y012340D01*
X013051Y012340D01*
X013051Y012840D02*
X013811Y012840D01*
X014261Y013490D02*
X012761Y013490D01*
X012461Y013445D02*
X012461Y013090D01*
X012261Y012890D01*
X011735Y012364D01*
X011735Y011590D01*
X010987Y011590D02*
X010961Y011564D01*
X010961Y011090D01*
X012061Y010590D02*
X012061Y009964D01*
X012185Y009840D01*
X013051Y009840D01*
X013051Y009340D02*
X013437Y009340D01*
X014187Y008590D01*
X014761Y008764D02*
X014935Y008590D01*
X014761Y008764D02*
X014761Y009590D01*
X015011Y009840D01*
X015471Y009840D01*
X015471Y009340D02*
X015811Y009340D01*
X016261Y008890D01*
X016635Y008890D01*
X016661Y008916D01*
X016661Y009664D02*
X015985Y010340D01*
X015471Y010340D01*
X015471Y010840D02*
X016011Y010840D01*
X016261Y010590D01*
X016587Y010590D01*
X016661Y010516D01*
X016661Y011264D02*
X016585Y011340D01*
X015471Y011340D01*
X015471Y012840D02*
X014911Y012840D01*
X014261Y013490D01*
X013961Y014290D02*
X013397Y014290D01*
X013044Y014644D01*
X013267Y014866D02*
X013543Y014590D01*
X013861Y014590D01*
X014561Y015290D01*
X014661Y015290D01*
X015461Y016090D01*
X019661Y016090D01*
X019761Y015590D02*
X019861Y015590D01*
X020161Y015890D01*
X020161Y016390D01*
X020161Y016490D01*
X020661Y016990D01*
X020661Y017090D01*
X019761Y015590D02*
X015561Y015590D01*
X014961Y014990D01*
X014661Y014990D01*
X013961Y014290D01*
X013489Y015089D02*
X013991Y015590D01*
X012961Y017590D02*
X012761Y017590D01*
X012376Y017205D01*
X012153Y017428D02*
X013316Y018590D01*
X014961Y018590D01*
X014461Y018990D02*
X013270Y018990D01*
X011930Y017650D01*
X011708Y017873D02*
X013225Y019390D01*
X015961Y019390D01*
X015161Y019790D02*
X015061Y019790D01*
X014861Y019590D01*
X013561Y019590D01*
X012980Y019590D01*
X011485Y018096D01*
X012061Y019790D02*
X013761Y019790D01*
X014161Y020190D01*
X014161Y020490D01*
X008924Y016982D02*
X008416Y017490D01*
X007961Y017490D01*
X007461Y017490D01*
X006761Y018190D01*
X006614Y018190D01*
X005835Y018190D01*
X005235Y017590D01*
X004487Y017590D02*
X003861Y017590D01*
X003861Y016690D02*
X004487Y016690D01*
X005235Y016690D02*
X005735Y016190D01*
X006614Y016190D01*
X006861Y016190D01*
X007861Y017190D01*
X008270Y017190D01*
X008701Y016759D01*
X007887Y017990D02*
X007661Y018216D01*
X007661Y018390D01*
X011184Y014722D02*
X012153Y013753D01*
X012461Y013445D01*
X012376Y013976D02*
X011961Y014390D01*
X011961Y014590D01*
X012185Y009340D02*
X012061Y009216D01*
X012185Y009340D02*
X013051Y009340D01*
X006061Y013890D02*
X005455Y013890D01*
X002077Y011890D02*
X001661Y011890D01*
X001261Y011890D01*
X001261Y011490D01*
X001261Y011090D01*
X001661Y011090D01*
X001661Y011490D02*
X001261Y011490D01*
X001261Y011890D02*
X001261Y012290D01*
X001261Y012690D01*
X001661Y012690D01*
X001661Y012290D02*
X001261Y012290D01*
D33*
X001261Y012290D03*
X001261Y011890D03*
X001261Y011490D03*
X001261Y011090D03*
X001661Y011090D03*
X001661Y011490D03*
X001661Y011890D03*
X001661Y012290D03*
X001661Y012690D03*
X001261Y012690D03*
X003861Y016690D03*
X003861Y017590D03*
X006061Y013890D03*
X008961Y013190D03*
X010461Y014690D03*
X010761Y014490D03*
X011061Y014190D03*
X011961Y014590D03*
X012761Y013490D03*
X013961Y013190D03*
X014461Y011390D03*
X013961Y010790D03*
X012061Y010590D03*
X010961Y011090D03*
X010161Y015090D03*
X009361Y015590D03*
X009061Y016090D03*
X009561Y016390D03*
X007661Y018390D03*
X012061Y019790D03*
X012961Y017590D03*
X014461Y018990D03*
X014961Y018590D03*
X015161Y019790D03*
X015961Y019390D03*
X016961Y018190D03*
X016461Y017790D03*
X017561Y016990D03*
X017961Y017390D03*
X021261Y015590D03*
X016661Y013690D03*
X005561Y009990D03*
D34*
X005561Y009484D01*
X005561Y008697D02*
X004424Y008697D01*
X004418Y008690D01*
X003961Y010990D02*
X004953Y010990D01*
X004951Y010993D01*
X004953Y010990D02*
X006361Y010990D01*
X004951Y012788D02*
X004951Y013607D01*
X004668Y013890D01*
X004668Y014584D01*
X004261Y014990D01*
X003461Y014990D01*
X004951Y012788D02*
X007959Y012788D01*
X008111Y012940D01*
X008961Y012090D01*
X008961Y009490D01*
X009161Y009290D01*
X009835Y009290D01*
X009861Y009316D01*
X009961Y009216D01*
X012061Y009216D01*
X008111Y012940D02*
X009147Y013976D01*
X020461Y008490D02*
X020461Y008264D01*
X020461Y007516D02*
X020461Y007390D01*
D35*
X020461Y006490D01*
X019461Y005490D01*
X007361Y005490D01*
X004418Y008434D01*
X004418Y008690D01*
X004418Y008890D01*
X001505Y008890D02*
X001461Y008847D01*
X001461Y007290D01*
X003661Y005090D01*
X003871Y005090D01*
X019661Y011090D02*
X020661Y011090D01*
X020661Y009290D01*
X020461Y009090D01*
X020461Y008490D01*
D36*
X007361Y020490D02*
X007361Y021526D01*
X007350Y021537D01*
X007361Y020490D02*
X006761Y019890D01*
X003361Y019890D01*
X001061Y017590D01*
X001061Y014690D01*
X001961Y013790D01*
X003361Y013790D01*
X003961Y013190D01*
X003961Y010990D01*
X003961Y010490D01*
X004418Y010034D01*
X004418Y008890D01*
D37*
X001539Y003968D03*
X001539Y021488D03*
X020634Y021488D03*
X020634Y003968D03*
M02*
